Week 5 Summary
…
The following object is masked from 'package:graphics':

    layout

Multiple Linear Regression

We now have p covariates instead of 1: \(X=\{x_1|x_2|...|x_p\}\) such that \(y=\beta_0+\beta_1x_1+...+\beta_px_p\) and the full description is \(y_i=\beta_0+\beta_1x_{1i}+...+\beta_px_{pi}+\epsilon_i\)

Look at the Credit dataset:

attach(ISLR2::Credit)
df<-Credit%>%tibble()
df

# A tibble: 400 × 11
   Income Limit Rating Cards   Age Educat…¹ Own   Student Married Region Balance
    <dbl> <dbl>  <dbl> <dbl> <dbl>    <dbl> <fct> <fct>   <fct>   <fct>    <dbl>
 1   14.9  3606    283     2    34       11 No    No      Yes     South      333
 2  106.   6645    483     3    82       15 Yes   Yes     Yes     West       903
 3  105.   7075    514     4    71       11 No    No      No      West       580
 4  149.   9504    681     3    36       11 Yes   No      No      West       964
 5   55.9  4897    357     2    68       16 No    No      Yes     South      331
 6   80.2  8047    569     4    77       10 No    No      No      South     1151
 7   21.0  3388    259     2    37       12 Yes   No      No      East       203
 8   71.4  7114    512     2    87        9 No    No      No      West       872
 9   15.1  3300    266     5    66       13 Yes   No      No      South      279
10   71.1  6819    491     3    41       19 Yes   Yes     Yes     East      1350
# … with 390 more rows, and abbreviated variable name ¹​Education

Focus on income, rating, and limit:

df3 <- df %>%select(Income,Limit,Rating)
df3

# A tibble: 400 × 3
   Income Limit Rating
    <dbl> <dbl>  <dbl>
 1   14.9  3606    283
 2  106.   6645    483
 3  105.   7075    514
 4  149.   9504    681
 5   55.9  4897    357
 6   80.2  8047    569
 7   21.0  3388    259
 8   71.4  7114    512
 9   15.1  3300    266
10   71.1  6819    491
# … with 390 more rows
…
